MathKernel
<<mouseEvent
<<mouseEvent.nb
<<mouseEvent.nb`
<<mouseEvent`
UsingFrontEnd[ nb = NotebookOpen["mouseEvent.nb"]; SelectionMove[nb,All,Notebook]; SelectionEvaluate[nb]; NotebookPauseForEvaluation[nb]; ]
nb=UsingFrontEnd@NotebookOpen["mouseEvent.nb"]
UsingFrontEnd@NotebookEvaluate[nb]
>>hope`
<<hope`
<<hope
<<love
<<hope
Kill[]
ps -aux
<<hope
